
=== Start: [2013/01/23 23:48:34] === 
Memory error analysis: started...
Result file: /home/kyle/Documents/CodeBase/pixelWorld/intel_profiling/pixelWorld_inspxe/r002mi2/r002mi2.inspxe 
Analysis started for /home/kyle/Documents/CodeBase/pixelWorld/game (pid = 17927) 
Loaded module: /home/kyle/Documents/CodeBase/pixelWorld/bin/game, address range [0x400000-0x613607] 
Loaded module: /lib64/ld-linux-x86-64.so.2, address range [0x7f37a71e1000-0x7f37a74041a7], minimal analysis 
Loaded module: /usr/lib64/libSDL-1.2.so.0, address range [0x7f379380f000-0x7f3793a72037] 
Loaded module: /usr/lib64/libSDL_ttf-2.0.so.0, address range [0x7f3793580000-0x7f3793786177] 
Loaded module: /usr/lib64/libGL.so.1, address range [0x7f3793317000-0x7f379357f757] 
Loaded module: /usr/lib/gcc/x86_64-pc-linux-gnu/4.6.3/libstdc++.so.6, address range [0x7f3792fd7000-0x7f37932da38f] 
Loaded module: /lib64/libm.so.6, address range [0x7f3792ce1000-0x7f3792fd6127] 
Loaded module: /usr/lib/gcc/x86_64-pc-linux-gnu/4.6.3/libgcc_s.so.1, address range [0x7f3792a9e000-0x7f3792cb3417] 
Loaded module: /lib64/libc.so.6, address range [0x7f37926f4000-0x7f3792a9dd1f] 
Loaded module: /lib64/libpthread.so.0, address range [0x7f37924d7000-0x7f37926f33af] 
Loaded module: /usr/lib64/libasound.so.2, address range [0x7f3792152000-0x7f379243280f] 
Loaded module: /lib64/libdl.so.2, address range [0x7f3791f4e000-0x7f3792151107], minimal analysis 
Loaded module: /usr/lib64/libpulse-simple.so.0, address range [0x7f3791d49000-0x7f3791f4d177] 
Loaded module: /usr/lib64/libpulse.so.0, address range [0x7f3791afd000-0x7f3791d48ad7] 
Loaded module: /usr/lib64/libfreetype.so.6, address range [0x7f379185d000-0x7f3791afc68f] 
Loaded module: /usr/lib64/libglapi.so.0, address range [0x7f3791637000-0x7f379185c9cf] 
Loaded module: /usr/lib64/libXext.so.6, address range [0x7f3791425000-0x7f3791636a67] 
Loaded module: /usr/lib64/libXdamage.so.1, address range [0x7f3791222000-0x7f3791424097] 
Loaded module: /usr/lib64/libXfixes.so.3, address range [0x7f379101c000-0x7f37912210f7] 
Loaded module: /usr/lib64/libX11-xcb.so.1, address range [0x7f3790e14000-0x7f379101501f] 
Loaded module: /usr/lib64/libX11.so.6, address range [0x7f3790acf000-0x7f3790e0dde7] 
Loaded module: /usr/lib64/libxcb-glx.so.0, address range [0x7f379089d000-0x7f3790ab504f] 
Loaded module: /usr/lib64/libxcb.so.1, address range [0x7f379066f000-0x7f379088f3af] 
Loaded module: /usr/lib64/libXxf86vm.so.1, address range [0x7f3790456000-0x7f379065b167] 
Loaded module: /usr/lib64/libdrm.so.2, address range [0x7f3790237000-0x7f3790442b6f] 
Loaded module: /lib64/librt.so.1, address range [0x7f3790021000-0x7f3790229c17] 
Loaded module: /usr/lib64/libjson.so.0, address range [0x7f378fdfc000-0x7f37900032a7] 
Loaded module: /usr/lib64/pulseaudio/libpulsecommon-2.1.so, address range [0x7f378fb80000-0x7f378fde3627] 
Loaded module: /usr/lib64/libICE.so.6, address range [0x7f378f959000-0x7f378fb7511f], minimal analysis 
Loaded module: /usr/lib64/libSM.so.6, address range [0x7f378f732000-0x7f378f93a14f], minimal analysis 
Loaded module: /usr/lib64/libXtst.so.6, address range [0x7f378f526000-0x7f378f72b257] 
Loaded module: /lib64/libwrap.so.0, address range [0x7f378f311000-0x7f378f519f9f] 
Loaded module: /usr/lib64/libsndfile.so.1, address range [0x7f378f097000-0x7f378f2fdd2f] 
Loaded module: /usr/lib64/libFLAC.so.8, address range [0x7f378ee4b000-0x7f378f084be7] 
Loaded module: /usr/lib64/libvorbisenc.so.2, address range [0x7f378e96a000-0x7f378ee3809f] 
Loaded module: /usr/lib64/libvorbis.so.0, address range [0x7f378e71f000-0x7f378e94a307] 
Loaded module: /usr/lib64/libogg.so.0, address range [0x7f378e504000-0x7f378e70a12f] 
Loaded module: /usr/lib64/libasyncns.so.0, address range [0x7f378e2f3000-0x7f378e4f7117] 
Loaded module: /usr/lib64/libdbus-1.so.3, address range [0x7f378e0a2000-0x7f378e2df997] 
Loaded module: /usr/lib64/libgdbm.so.3, address range [0x7f378de7e000-0x7f378e08318f] 
Loaded module: /lib64/libcap.so.2, address range [0x7f378dc6f000-0x7f378de74247] 
Loaded module: /lib64/libz.so.1, address range [0x7f378da4c000-0x7f378dc611ef] 
Loaded module: /lib64/libbz2.so.1, address range [0x7f378d833000-0x7f378da42d6f] 
Loaded module: /usr/lib64/libXau.so.6, address range [0x7f378d61d000-0x7f378d82010f] 
Loaded module: /usr/lib64/libXdmcp.so.6, address range [0x7f378d407000-0x7f378d60c0df], minimal analysis 
Loaded module: /lib64/libuuid.so.1, address range [0x7f378d1ed000-0x7f378d3f11af] 
Loaded module: /lib64/libresolv.so.2, address range [0x7f378cfc9000-0x7f378d1dfa87] 
Loaded module: /lib64/libattr.so.1, address range [0x7f378cdab000-0x7f378cfaf157] 
Loaded module: /usr/lib64/libXrender.so.1, address range [0x7f378c310000-0x7f378c519287] 
Loaded module: /usr/lib64/libXrandr.so.2, address range [0x7f378c0b2000-0x7f378c2bb187] 
Unloaded module: /usr/lib64/libXrandr.so.2 
Unloaded module: /usr/lib64/libXrender.so.1 
Loaded module: /usr/lib64/libXrender.so.1, address range [0x7f378b9a3000-0x7f378bbac287] 
Loaded module: /usr/lib64/libXrandr.so.2, address range [0x7f378b799000-0x7f378b9a2187] 
Loaded module: /usr/lib64/libXcursor.so.1, address range [0x7f378b290000-0x7f378b49a307] 
Loaded module: /usr/lib64/dri/i965_dri.so, address range [0x7f378ac91000-0x7f378af50157] 
Loaded module: /usr/lib64/libdricore9.0.1.so.1, address range [0x7f378a6d5000-0x7f378ac9068f] 
Loaded module: /usr/lib64/libexpat.so.1, address range [0x7f378a4aa000-0x7f378a6d40c7] 
Loaded module: /usr/lib64/libdrm_intel.so.1, address range [0x7f378a27d000-0x7f378a49d1ff] 
Loaded module: /usr/lib64/libpciaccess.so.0, address range [0x7f378a05e000-0x7f378a2661ef] 
Unloaded module: /usr/lib64/libXrandr.so.2 
Process /home/kyle/Documents/CodeBase/pixelWorld/game exited with code 0. Leak analysis starting. Please wait... 
Unloaded module: /home/kyle/Documents/CodeBase/pixelWorld/bin/game 
Unloaded module: /lib64/ld-linux-x86-64.so.2 
Unloaded module: /usr/lib64/libSDL-1.2.so.0 
Unloaded module: /usr/lib64/libSDL_ttf-2.0.so.0 
Unloaded module: /usr/lib64/libGL.so.1 
Unloaded module: /usr/lib/gcc/x86_64-pc-linux-gnu/4.6.3/libstdc++.so.6 
Unloaded module: /lib64/libm.so.6 
Unloaded module: /usr/lib/gcc/x86_64-pc-linux-gnu/4.6.3/libgcc_s.so.1 
Unloaded module: /lib64/libc.so.6 
Unloaded module: /lib64/libpthread.so.0 
Unloaded module: /usr/lib64/libasound.so.2 
Unloaded module: /lib64/libdl.so.2 
Unloaded module: /usr/lib64/libpulse-simple.so.0 
Unloaded module: /usr/lib64/libpulse.so.0 
Unloaded module: /usr/lib64/libfreetype.so.6 
Unloaded module: /usr/lib64/libglapi.so.0 
Unloaded module: /usr/lib64/libXext.so.6 
Unloaded module: /usr/lib64/libXdamage.so.1 
Unloaded module: /usr/lib64/libXfixes.so.3 
Unloaded module: /usr/lib64/libX11-xcb.so.1 
Unloaded module: /usr/lib64/libX11.so.6 
Unloaded module: /usr/lib64/libxcb-glx.so.0 
Unloaded module: /usr/lib64/libxcb.so.1 
Unloaded module: /usr/lib64/libXxf86vm.so.1 
Unloaded module: /usr/lib64/libdrm.so.2 
Unloaded module: /lib64/librt.so.1 
Unloaded module: /usr/lib64/libjson.so.0 
Unloaded module: /usr/lib64/pulseaudio/libpulsecommon-2.1.so 
Unloaded module: /usr/lib64/libICE.so.6 
Unloaded module: /usr/lib64/libSM.so.6 
Unloaded module: /usr/lib64/libXtst.so.6 
Unloaded module: /lib64/libwrap.so.0 
Unloaded module: /usr/lib64/libsndfile.so.1 
Unloaded module: /usr/lib64/libFLAC.so.8 
Unloaded module: /usr/lib64/libvorbisenc.so.2 
Unloaded module: /usr/lib64/libvorbis.so.0 
Unloaded module: /usr/lib64/libogg.so.0 
Unloaded module: /usr/lib64/libasyncns.so.0 
Unloaded module: /usr/lib64/libdbus-1.so.3 
Unloaded module: /usr/lib64/libgdbm.so.3 
Unloaded module: /lib64/libcap.so.2 
Unloaded module: /lib64/libz.so.1 
Unloaded module: /lib64/libbz2.so.1 
Unloaded module: /usr/lib64/libXau.so.6 
Unloaded module: /usr/lib64/libXdmcp.so.6 
Unloaded module: /lib64/libuuid.so.1 
Unloaded module: /lib64/libresolv.so.2 
Unloaded module: /lib64/libattr.so.1 
Unloaded module: /usr/lib64/libXrender.so.1 
Unloaded module: /usr/lib64/libXcursor.so.1 
Unloaded module: /usr/lib64/dri/i965_dri.so 
Unloaded module: /usr/lib64/libdricore9.0.1.so.1 
Unloaded module: /usr/lib64/libexpat.so.1 
Unloaded module: /usr/lib64/libdrm_intel.so.1 
Unloaded module: /usr/lib64/libpciaccess.so.0 
Completed analysis for /home/kyle/Documents/CodeBase/pixelWorld/game 
Application exit code: 0 
Result file: /home/kyle/Documents/CodeBase/pixelWorld/intel_profiling/pixelWorld_inspxe/r002mi2/r002mi2.inspxe 
Memory error analysis: completed
=== End: [2013/01/23 23:49:54] === 
