
=== Start: [2013/01/24 00:04:51] === 
Memory error analysis: started...
Result file: /home/kyle/Documents/CodeBase/pixelWorld/intel_profiling/pixelWorld_inspxe/r006mi2/r006mi2.inspxe 
Analysis started for /home/kyle/Documents/CodeBase/pixelWorld/game (pid = 11445) 
Loaded module: /home/kyle/Documents/CodeBase/pixelWorld/bin/game, address range [0x400000-0x612607] 
Loaded module: /lib64/ld-linux-x86-64.so.2, address range [0x7f9f0160c000-0x7f9f0182f1a7], minimal analysis 
Loaded module: /usr/lib64/libSDL-1.2.so.0, address range [0x7f9eedbcc000-0x7f9eede2f037] 
Loaded module: /usr/lib64/libSDL_ttf-2.0.so.0, address range [0x7f9eed93b000-0x7f9eedb41177] 
Loaded module: /usr/lib64/libGL.so.1, address range [0x7f9eed6d2000-0x7f9eed93a757] 
Loaded module: /usr/lib/gcc/x86_64-pc-linux-gnu/4.6.3/libstdc++.so.6, address range [0x7f9eed392000-0x7f9eed69538f] 
Loaded module: /lib64/libm.so.6, address range [0x7f9eed09c000-0x7f9eed391127] 
Loaded module: /usr/lib/gcc/x86_64-pc-linux-gnu/4.6.3/libgcc_s.so.1, address range [0x7f9eece5a000-0x7f9eed06f417] 
Loaded module: /lib64/libc.so.6, address range [0x7f9eecab0000-0x7f9eece59d1f] 
Loaded module: /lib64/libpthread.so.0, address range [0x7f9eec893000-0x7f9eecaaf3af] 
Loaded module: /usr/lib64/libasound.so.2, address range [0x7f9eec520000-0x7f9eec80080f] 
Loaded module: /lib64/libdl.so.2, address range [0x7f9eec31c000-0x7f9eec51f107], minimal analysis 
Loaded module: /usr/lib64/libpulse-simple.so.0, address range [0x7f9eec117000-0x7f9eec31b177] 
Loaded module: /usr/lib64/libpulse.so.0, address range [0x7f9eebecb000-0x7f9eec116ad7] 
Loaded module: /usr/lib64/libfreetype.so.6, address range [0x7f9eebc2b000-0x7f9eebeca68f] 
Loaded module: /usr/lib64/libglapi.so.0, address range [0x7f9eeba05000-0x7f9eebc2a9cf] 
Loaded module: /usr/lib64/libXext.so.6, address range [0x7f9eeb7f3000-0x7f9eeba04a67] 
Loaded module: /usr/lib64/libXdamage.so.1, address range [0x7f9eeb5f0000-0x7f9eeb7f2097] 
Loaded module: /usr/lib64/libXfixes.so.3, address range [0x7f9eeb3ea000-0x7f9eeb5ef0f7] 
Loaded module: /usr/lib64/libX11-xcb.so.1, address range [0x7f9eeb1e0000-0x7f9eeb3e101f] 
Loaded module: /usr/lib64/libX11.so.6, address range [0x7f9eeae9b000-0x7f9eeb1d9de7] 
Loaded module: /usr/lib64/libxcb-glx.so.0, address range [0x7f9eeac69000-0x7f9eeae8104f] 
Loaded module: /usr/lib64/libxcb.so.1, address range [0x7f9eeaa39000-0x7f9eeac593af] 
Loaded module: /usr/lib64/libXxf86vm.so.1, address range [0x7f9eea821000-0x7f9eeaa26167] 
Loaded module: /usr/lib64/libdrm.so.2, address range [0x7f9eea601000-0x7f9eea80cb6f] 
Loaded module: /lib64/librt.so.1, address range [0x7f9eea3ec000-0x7f9eea5f4c17] 
Loaded module: /usr/lib64/libjson.so.0, address range [0x7f9eea1c1000-0x7f9eea3c82a7] 
Loaded module: /usr/lib64/pulseaudio/libpulsecommon-2.1.so, address range [0x7f9ee9f42000-0x7f9eea1a5627] 
Loaded module: /usr/lib64/libICE.so.6, address range [0x7f9ee9d25000-0x7f9ee9f4111f], minimal analysis 
Loaded module: /usr/lib64/libSM.so.6, address range [0x7f9ee9af8000-0x7f9ee9d0014f], minimal analysis 
Loaded module: /usr/lib64/libXtst.so.6, address range [0x7f9ee98e6000-0x7f9ee9aeb257] 
Loaded module: /lib64/libwrap.so.0, address range [0x7f9ee96d1000-0x7f9ee98d9f9f] 
Loaded module: /usr/lib64/libsndfile.so.1, address range [0x7f9ee9456000-0x7f9ee96bcd2f] 
Loaded module: /usr/lib64/libFLAC.so.8, address range [0x7f9ee920a000-0x7f9ee9443be7] 
Loaded module: /usr/lib64/libvorbisenc.so.2, address range [0x7f9ee8d29000-0x7f9ee91f709f] 
Loaded module: /usr/lib64/libvorbis.so.0, address range [0x7f9ee8ade000-0x7f9ee8d09307] 
Loaded module: /usr/lib64/libogg.so.0, address range [0x7f9ee88c3000-0x7f9ee8ac912f] 
Loaded module: /usr/lib64/libasyncns.so.0, address range [0x7f9ee86b2000-0x7f9ee88b6117] 
Loaded module: /usr/lib64/libdbus-1.so.3, address range [0x7f9ee8461000-0x7f9ee869e997] 
Loaded module: /usr/lib64/libgdbm.so.3, address range [0x7f9ee8249000-0x7f9ee844e18f] 
Loaded module: /lib64/libcap.so.2, address range [0x7f9ee8037000-0x7f9ee823c247] 
Loaded module: /lib64/libz.so.1, address range [0x7f9ee7e0e000-0x7f9ee80231ef] 
Loaded module: /lib64/libbz2.so.1, address range [0x7f9ee7bf2000-0x7f9ee7e01d6f] 
Loaded module: /usr/lib64/libXau.so.6, address range [0x7f9ee79d9000-0x7f9ee7bdc10f] 
Loaded module: /usr/lib64/libXdmcp.so.6, address range [0x7f9ee77c6000-0x7f9ee79cb0df], minimal analysis 
Loaded module: /lib64/libuuid.so.1, address range [0x7f9ee75ac000-0x7f9ee77b01af] 
Loaded module: /lib64/libresolv.so.2, address range [0x7f9ee7389000-0x7f9ee759fa87] 
Loaded module: /lib64/libattr.so.1, address range [0x7f9ee716a000-0x7f9ee736e157] 
Loaded module: /usr/lib64/libXrender.so.1, address range [0x7f9ee66c1000-0x7f9ee68ca287] 
Loaded module: /usr/lib64/libXrandr.so.2, address range [0x7f9ee6476000-0x7f9ee667f187] 
Unloaded module: /usr/lib64/libXrandr.so.2 
Unloaded module: /usr/lib64/libXrender.so.1 
Loaded module: /usr/lib64/libXrender.so.1, address range [0x7f9ee6476000-0x7f9ee667f287] 
Loaded module: /usr/lib64/libXrandr.so.2, address range [0x7f9ee5d67000-0x7f9ee5f70187] 
Loaded module: /usr/lib64/libXcursor.so.1, address range [0x7f9ee564c000-0x7f9ee5856307] 
Loaded module: /usr/lib64/dri/i965_dri.so, address range [0x7f9ee503d000-0x7f9ee52fc157] 
Loaded module: /usr/lib64/libdricore9.0.1.so.1, address range [0x7f9ee4a81000-0x7f9ee503c68f] 
Loaded module: /usr/lib64/libexpat.so.1, address range [0x7f9ee4856000-0x7f9ee4a800c7] 
Loaded module: /usr/lib64/libdrm_intel.so.1, address range [0x7f9ee4623000-0x7f9ee48431ff] 
Loaded module: /usr/lib64/libpciaccess.so.0, address range [0x7f9ee4404000-0x7f9ee460c1ef] 
Unloaded module: /usr/lib64/libXrandr.so.2 
Process /home/kyle/Documents/CodeBase/pixelWorld/game exited with code 0. Leak analysis starting. Please wait... 
Unloaded module: /home/kyle/Documents/CodeBase/pixelWorld/bin/game 
Unloaded module: /lib64/ld-linux-x86-64.so.2 
Unloaded module: /usr/lib64/libSDL-1.2.so.0 
Unloaded module: /usr/lib64/libSDL_ttf-2.0.so.0 
Unloaded module: /usr/lib64/libGL.so.1 
Unloaded module: /usr/lib/gcc/x86_64-pc-linux-gnu/4.6.3/libstdc++.so.6 
Unloaded module: /lib64/libm.so.6 
Unloaded module: /usr/lib/gcc/x86_64-pc-linux-gnu/4.6.3/libgcc_s.so.1 
Unloaded module: /lib64/libc.so.6 
Unloaded module: /lib64/libpthread.so.0 
Unloaded module: /usr/lib64/libasound.so.2 
Unloaded module: /lib64/libdl.so.2 
Unloaded module: /usr/lib64/libpulse-simple.so.0 
Unloaded module: /usr/lib64/libpulse.so.0 
Unloaded module: /usr/lib64/libfreetype.so.6 
Unloaded module: /usr/lib64/libglapi.so.0 
Unloaded module: /usr/lib64/libXext.so.6 
Unloaded module: /usr/lib64/libXdamage.so.1 
Unloaded module: /usr/lib64/libXfixes.so.3 
Unloaded module: /usr/lib64/libX11-xcb.so.1 
Unloaded module: /usr/lib64/libX11.so.6 
Unloaded module: /usr/lib64/libxcb-glx.so.0 
Unloaded module: /usr/lib64/libxcb.so.1 
Unloaded module: /usr/lib64/libXxf86vm.so.1 
Unloaded module: /usr/lib64/libdrm.so.2 
Unloaded module: /lib64/librt.so.1 
Unloaded module: /usr/lib64/libjson.so.0 
Unloaded module: /usr/lib64/pulseaudio/libpulsecommon-2.1.so 
Unloaded module: /usr/lib64/libICE.so.6 
Unloaded module: /usr/lib64/libSM.so.6 
Unloaded module: /usr/lib64/libXtst.so.6 
Unloaded module: /lib64/libwrap.so.0 
Unloaded module: /usr/lib64/libsndfile.so.1 
Unloaded module: /usr/lib64/libFLAC.so.8 
Unloaded module: /usr/lib64/libvorbisenc.so.2 
Unloaded module: /usr/lib64/libvorbis.so.0 
Unloaded module: /usr/lib64/libogg.so.0 
Unloaded module: /usr/lib64/libasyncns.so.0 
Unloaded module: /usr/lib64/libdbus-1.so.3 
Unloaded module: /usr/lib64/libgdbm.so.3 
Unloaded module: /lib64/libcap.so.2 
Unloaded module: /lib64/libz.so.1 
Unloaded module: /lib64/libbz2.so.1 
Unloaded module: /usr/lib64/libXau.so.6 
Unloaded module: /usr/lib64/libXdmcp.so.6 
Unloaded module: /lib64/libuuid.so.1 
Unloaded module: /lib64/libresolv.so.2 
Unloaded module: /lib64/libattr.so.1 
Unloaded module: /usr/lib64/libXrender.so.1 
Unloaded module: /usr/lib64/libXcursor.so.1 
Unloaded module: /usr/lib64/dri/i965_dri.so 
Unloaded module: /usr/lib64/libdricore9.0.1.so.1 
Unloaded module: /usr/lib64/libexpat.so.1 
Unloaded module: /usr/lib64/libdrm_intel.so.1 
Unloaded module: /usr/lib64/libpciaccess.so.0 
Completed analysis for /home/kyle/Documents/CodeBase/pixelWorld/game 
Application exit code: 0 
Result file: /home/kyle/Documents/CodeBase/pixelWorld/intel_profiling/pixelWorld_inspxe/r006mi2/r006mi2.inspxe 
Memory error analysis: completed
=== End: [2013/01/24 00:05:55] === 
